Error, "phase2/amtkcheck12_youguyssuck.rc", line 10: 
  Break does not occur in a loop.
Error, "phase2/amtkcheck12_youguyssuck.rc", line 10: 
  Break does not occur in a loop.
Error, "phase2/amtkcheck12_youguyssuck.rc", line 12: 
  Continue does not occur in a loop.
Error, "phase2/amtkcheck12_youguyssuck.rc", line 15: 
  Continue does not occur in a loop.
Error, "phase2/amtkcheck12_youguyssuck.rc", line 17: 
  Break does not occur in a loop.
Error, "phase2/amtkcheck12_youguyssuck.rc", line 17: 
  Break does not occur in a loop.
Compile: failure.
