Error, "phase2/check15tcas-PointersAssignment15b.rc", line 9: 
  Left-hand operand is not assignable (not a modifiable L-value).
Error, "phase2/check15tcas-PointersAssignment15b.rc", line 13: 
  Left-hand operand is not assignable (not a modifiable L-value).
Error, "phase2/check15tcas-PointersAssignment15b.rc", line 23: 
  Value of type float** not assignable to variable of type int**.
Error, "phase2/check15tcas-PointersAssignment15b.rc", line 24: 
  Value of type int** not assignable to variable of type float**.
Error, "phase2/check15tcas-PointersAssignment15b.rc", line 25: 
  Value of type int* not assignable to variable of type int.
Error, "phase2/check15tcas-PointersAssignment15b.rc", line 26: 
  Value of type float* not assignable to variable of type int.
Error, "phase2/check15tcas-PointersAssignment15b.rc", line 27: 
  Value of type int not assignable to variable of type float*.
Error, "phase2/check15tcas-PointersAssignment15b.rc", line 28: 
  Value of type float* not assignable to variable of type float**.
Error, "phase2/check15tcas-PointersAssignment15b.rc", line 29: 
  Value of type float** not assignable to variable of type float*.
Error, "phase2/check15tcas-PointersAssignment15b.rc", line 31: 
  Value of type int** not assignable to variable of type float.
Error, "phase2/check15tcas-PointersAssignment15b.rc", line 34: 
  Value of type bool* not assignable to variable of type bool**.
Error, "phase2/check15tcas-PointersAssignment15b.rc", line 35: 
  Value of type bool** not assignable to variable of type bool*.
Error, "phase2/check15tcas-PointersAssignment15b.rc", line 36: 
  Value of type float** not assignable to variable of type bool**.
Compile: failure.
