Error, "phase2/check13ccbz-duplicateField.rc", line 3: 
  Field x declared second time in struct.
Error, "phase2/check13ccbz-duplicateField.rc", line 4: 
  Field x declared second time in struct.
Error, "phase2/check13ccbz-duplicateField.rc", line 5: 
  Field y declared second time in struct.
Error, "phase2/check13ccbz-duplicateField.rc", line 9: 
  Initialization value of type float not assignable to constant/variable of type int.
Error, "phase2/check13ccbz-duplicateField.rc", line 12: 
  Field foo declared second time in struct.
Compile: failure.
