Error, "phase2/check12msbs-break.rc", line 3: 
  Break does not occur in a loop.
Error, "phase2/check12msbs-break.rc", line 4: 
  Continue does not occur in a loop.
Error, "phase2/check12msbs-break.rc", line 22: 
  Continue does not occur in a loop.
Error, "phase2/check12msbs-break.rc", line 23: 
  Break does not occur in a loop.
Compile: failure.
