Error, "phase2/check10mbaw-Everything.rc", line 17: 
  Index expression type (float) in array declaration not equivalent to int.
Error, "phase2/check10mbaw-Everything.rc", line 21: 
  Value of index expression not known at compile time.
Error, "phase2/check10mbaw-Everything.rc", line 29: 
  Index expression type (float) in array declaration not equivalent to int.
Error, "phase2/check10mbaw-Everything.rc", line 32: 
  Index expression value (-43) in array declaration must be > 0.
Error, "phase2/check10mbaw-Everything.rc", line 35: 
  syntax error near "]".
Compile: failure.
