Error, "phase2/check13blsv-struct.rc", line 4: 
  Field x declared second time in struct.
Error, "phase2/check13blsv-struct.rc", line 5: 
  Field x declared second time in struct.
Error, "phase2/check13blsv-struct.rc", line 6: 
  Field y declared second time in struct.
Error, "phase2/check13blsv-struct.rc", line 8: 
  Field foo declared second time in struct.
Error, "phase2/check13blsv-struct.rc", line 9: 
  Field foo declared second time in struct.
Error, "phase2/check13blsv-struct.rc", line 10: 
  Field x declared second time in struct.
Error, "phase2/check13blsv-struct.rc", line 17: 
  Size of field myRecursiveStruct cannot be determined at compile time.
Compile: failure.
