Error, "phase2/check10qplc-a.rc", line 8: 
  Value of index expression not known at compile time.
Error, "phase2/check10qplc-a.rc", line 11: 
  Index expression value (-1) in array declaration must be > 0.
Error, "phase2/check10qplc-a.rc", line 13: 
  Index expression value (0) in array declaration must be > 0.
Error, "phase2/check10qplc-a.rc", line 14: 
  Index expression value (-2) in array declaration must be > 0.
Error, "phase2/check10qplc-a.rc", line 18: 
  Index expression value (0) in array declaration must be > 0.
Error, "phase2/check10qplc-a.rc", line 20: 
  Index expression value (0) in array declaration must be > 0.
Compile: failure.
