Error, "check19jmhg-Casting.rc", line 17: 
  Initialization value of type int not assignable to constant/variable of type bool.
Error, "check19jmhg-Casting.rc", line 19: 
  Invalid type cast. Type MY to type int is not supported.
Error, "check19jmhg-Casting.rc", line 21: 
  Initialization value of type float not assignable to constant/variable of type int.
Error, "check19jmhg-Casting.rc", line 22: 
  Invalid type cast. Type int[10] to type MY is not supported.
Error, "check19jmhg-Casting.rc", line 24: 
  Invalid type cast. Type funcptr : void (int x) to type bool is not supported.
Error, "check19jmhg-Casting.rc", line 32: 
  Invalid type cast. Type AAA to type float is not supported.
Error, "check19jmhg-Casting.rc", line 34: 
  Invalid type cast. Type funcptr : void (int x) to type int is not supported.
Error, "check19jmhg-Casting.rc", line 39: 
  Incompatible type bool to binary operator +, numeric expected.
Error, "check19jmhg-Casting.rc", line 40: 
  Operand to ++ is not a modifiable L-value.
Error, "check19jmhg-Casting.rc", line 42: 
  Invalid type cast. Type MY* to type MY is not supported.
Error, "check19jmhg-Casting.rc", line 45: 
  Return expression is not a modifiable L-value for function that returns by reference.
Compile: failure.
