Error, "phase3/check21msbs-addressof.rc", line 5: 
  Non-addressable argument of type int to address-of operator.
Error, "phase3/check21msbs-addressof.rc", line 6: 
  Non-addressable argument of type int to address-of operator.
Error, "phase3/check21msbs-addressof.rc", line 9: 
  Initialization value of type int* not assignable to constant/variable of type int.
Error, "phase3/check21msbs-addressof.rc", line 11: 
  Non-addressable argument of type bool to address-of operator.
Error, "phase3/check21msbs-addressof.rc", line 12: 
  Non-addressable argument of type int to address-of operator.
Error, "phase3/check21msbs-addressof.rc", line 14: 
  Initialization value of constant named h not known at compile time.
Error, "phase3/check21msbs-addressof.rc", line 17: 
  Index value of 7 is outside legal range [0,1).
Error, "phase3/check21msbs-addressof.rc", line 18: 
  Index value of 3 is outside legal range [0,1).
Error, "phase3/check21msbs-addressof.rc", line 19: 
  Index value of 1 is outside legal range [0,1).
Error, "phase3/check21msbs-addressof.rc", line 20: 
  Index value of -16 is outside legal range [0,1).
Compile: failure.
