Error, "phase3/check17tcas-EqualEqualPtr.rc", line 27: 
  Incompatible types to operator ==:
    int*,
    int;
  both must be of equivalent pointer type.
Error, "phase3/check17tcas-EqualEqualPtr.rc", line 28: 
  Incompatible types to operator ==:
    int,
    int*;
  both must be of equivalent pointer type.
Error, "phase3/check17tcas-EqualEqualPtr.rc", line 29: 
  Incompatible types to operator ==:
    int,
    NULL;
  both must be of equivalent pointer type.
Error, "phase3/check17tcas-EqualEqualPtr.rc", line 30: 
  Incompatible types to operator ==:
    NULL,
    float;
  both must be of equivalent pointer type.
Error, "phase3/check17tcas-EqualEqualPtr.rc", line 31: 
  Incompatible types to operator ==:
    int*,
    float*;
  both must be of equivalent pointer type.
Error, "phase3/check17tcas-EqualEqualPtr.rc", line 32: 
  Incompatible types to operator ==:
    float*,
    int*;
  both must be of equivalent pointer type.
Compile: failure.
