Error, "phase1/check01andi-BitwiseOps.rc", line 11: 
  Incompatible type bool to binary operator &, equivalent to int expected.
Error, "phase1/check01andi-BitwiseOps.rc", line 12: 
  Incompatible type float to binary operator &, equivalent to int expected.
Error, "phase1/check01andi-BitwiseOps.rc", line 13: 
  Incompatible type float to binary operator &, equivalent to int expected.
Error, "phase1/check01andi-BitwiseOps.rc", line 14: 
  Incompatible type float to binary operator &, equivalent to int expected.
Error, "phase1/check01andi-BitwiseOps.rc", line 16: 
  Incompatible type bool to binary operator &, equivalent to int expected.
Error, "phase1/check01andi-BitwiseOps.rc", line 17: 
  Incompatible type bool to binary operator &, equivalent to int expected.
Error, "phase1/check01andi-BitwiseOps.rc", line 19: 
  Incompatible type float to binary operator &, equivalent to int expected.
Error, "phase1/check01andi-BitwiseOps.rc", line 20: 
  Incompatible type bool to binary operator &, equivalent to int expected.
Error, "phase1/check01andi-BitwiseOps.rc", line 27: 
  Incompatible type bool to binary operator ^, equivalent to int expected.
Error, "phase1/check01andi-BitwiseOps.rc", line 28: 
  Incompatible type float to binary operator ^, equivalent to int expected.
Error, "phase1/check01andi-BitwiseOps.rc", line 29: 
  Incompatible type float to binary operator ^, equivalent to int expected.
Error, "phase1/check01andi-BitwiseOps.rc", line 30: 
  Incompatible type float to binary operator ^, equivalent to int expected.
Error, "phase1/check01andi-BitwiseOps.rc", line 32: 
  Incompatible type bool to binary operator ^, equivalent to int expected.
Error, "phase1/check01andi-BitwiseOps.rc", line 33: 
  Incompatible type bool to binary operator ^, equivalent to int expected.
Error, "phase1/check01andi-BitwiseOps.rc", line 35: 
  Incompatible type float to binary operator ^, equivalent to int expected.
Error, "phase1/check01andi-BitwiseOps.rc", line 36: 
  Incompatible type bool to binary operator ^, equivalent to int expected.
Error, "phase1/check01andi-BitwiseOps.rc", line 43: 
  Incompatible type bool to binary operator |, equivalent to int expected.
Error, "phase1/check01andi-BitwiseOps.rc", line 44: 
  Incompatible type float to binary operator |, equivalent to int expected.
Error, "phase1/check01andi-BitwiseOps.rc", line 45: 
  Incompatible type float to binary operator |, equivalent to int expected.
Error, "phase1/check01andi-BitwiseOps.rc", line 46: 
  Incompatible type float to binary operator |, equivalent to int expected.
Error, "phase1/check01andi-BitwiseOps.rc", line 48: 
  Incompatible type bool to binary operator |, equivalent to int expected.
Error, "phase1/check01andi-BitwiseOps.rc", line 49: 
  Incompatible type bool to binary operator |, equivalent to int expected.
Error, "phase1/check01andi-BitwiseOps.rc", line 51: 
  Incompatible type float to binary operator |, equivalent to int expected.
Error, "phase1/check01andi-BitwiseOps.rc", line 52: 
  Incompatible type bool to binary operator |, equivalent to int expected.
Compile: failure.
