Error, "phase1/check01ehwjh-013.rc", line 14: 
  Incompatible type int to binary operator &&, equivalent to bool expected.
Error, "phase1/check01ehwjh-013.rc", line 15: 
  Incompatible type int to binary operator &&, equivalent to bool expected.
Error, "phase1/check01ehwjh-013.rc", line 16: 
  Incompatible type int to binary operator &&, equivalent to bool expected.
Error, "phase1/check01ehwjh-013.rc", line 17: 
  Incompatible type float to binary operator &&, equivalent to bool expected.
Error, "phase1/check01ehwjh-013.rc", line 18: 
  Incompatible type float to binary operator &&, equivalent to bool expected.
Error, "phase1/check01ehwjh-013.rc", line 19: 
  Incompatible type float to binary operator &&, equivalent to bool expected.
Error, "phase1/check01ehwjh-013.rc", line 20: 
  Incompatible type int to binary operator &&, equivalent to bool expected.
Error, "phase1/check01ehwjh-013.rc", line 21: 
  Incompatible type float to binary operator &&, equivalent to bool expected.
Error, "phase1/check01ehwjh-013.rc", line 23: 
  Incompatible type int to binary operator &&, equivalent to bool expected.
Error, "phase1/check01ehwjh-013.rc", line 24: 
  Incompatible type int to binary operator &&, equivalent to bool expected.
Error, "phase1/check01ehwjh-013.rc", line 25: 
  Incompatible type float to binary operator &&, equivalent to bool expected.
Error, "phase1/check01ehwjh-013.rc", line 26: 
  Incompatible type float to binary operator &&, equivalent to bool expected.
Error, "phase1/check01ehwjh-013.rc", line 27: 
  Incompatible type float to binary operator &&, equivalent to bool expected.
Error, "phase1/check01ehwjh-013.rc", line 28: 
  Incompatible type int to binary operator &&, equivalent to bool expected.
Error, "phase1/check01ehwjh-013.rc", line 29: 
  Incompatible type float to binary operator &&, equivalent to bool expected.
Error, "phase1/check01ehwjh-013.rc", line 31: 
  Incompatible type int to binary operator &&, equivalent to bool expected.
Error, "phase1/check01ehwjh-013.rc", line 32: 
  Incompatible type int to binary operator &&, equivalent to bool expected.
Error, "phase1/check01ehwjh-013.rc", line 33: 
  Incompatible type int to binary operator &&, equivalent to bool expected.
Error, "phase1/check01ehwjh-013.rc", line 34: 
  Incompatible type float to binary operator &&, equivalent to bool expected.
Error, "phase1/check01ehwjh-013.rc", line 35: 
  Incompatible type float to binary operator &&, equivalent to bool expected.
Error, "phase1/check01ehwjh-013.rc", line 36: 
  Incompatible type float to binary operator &&, equivalent to bool expected.
Error, "phase1/check01ehwjh-013.rc", line 38: 
  Incompatible type int to binary operator &&, equivalent to bool expected.
Error, "phase1/check01ehwjh-013.rc", line 39: 
  Incompatible type float to binary operator &&, equivalent to bool expected.
Compile: failure.
