Error, "phase1/check04stla-check4.rc", line 26: 
  bool or int required for conditional test, float found.
Error, "phase1/check04stla-check4.rc", line 27: 
  bool or int required for conditional test, float found.
Error, "phase1/check04stla-check4.rc", line 28: 
  bool or int required for conditional test, float found.
Error, "phase1/check04stla-check4.rc", line 29: 
  bool or int required for conditional test, float found.
Error, "phase1/check04stla-check4.rc", line 30: 
  bool or int required for conditional test, float found.
Error, "phase1/check04stla-check4.rc", line 31: 
  bool or int required for conditional test, float found.
Compile: failure.
