Error, "phase1/func_call_b.rc", line 2: 
  Return in function requires a result expression, none found.
Error, "phase1/func_call_b.rc", line 6: 
  Type of return expression (float), not assignment compatible with function's return type (int).
Error, "phase1/func_call_b.rc", line 17: 
  Incompatible types to operator: int == bool;
  both must be numeric, or both equivalent to bool.
Error, "phase1/func_call_b.rc", line 26: 
  Return required in function, none found.
Compile: failure.
