Error, "phase1/gt_b.rc", line 11: 
  Incompatible type bool to binary operator >, numeric expected.
Error, "phase1/gt_b.rc", line 12: 
  Incompatible type bool to binary operator >, numeric expected.
Error, "phase1/gt_b.rc", line 13: 
  Incompatible type bool to binary operator >, numeric expected.
Error, "phase1/gt_b.rc", line 14: 
  Incompatible type bool to binary operator >, numeric expected.
Error, "phase1/gt_b.rc", line 17: 
  Incompatible type bool to binary operator >, numeric expected.
Error, "phase1/gt_b.rc", line 20: 
  Incompatible type bool to binary operator >, numeric expected.
Compile: failure.
