Error, "phase1/mod.rc", line 10: 
  Incompatible type bool to binary operator %, equivalent to int expected.
Error, "phase1/mod.rc", line 11: 
  Incompatible type bool to binary operator %, equivalent to int expected.
Error, "phase1/mod.rc", line 13: 
  Incompatible type bool to binary operator %, equivalent to int expected.
Error, "phase1/mod.rc", line 15: 
  Incompatible type bool to binary operator %, equivalent to int expected.
Error, "phase1/mod.rc", line 16: 
  Incompatible type float to binary operator %, equivalent to int expected.
Error, "phase1/mod.rc", line 18: 
  Incompatible type float to binary operator %, equivalent to int expected.
Error, "phase1/mod.rc", line 19: 
  Incompatible type float to binary operator %, equivalent to int expected.
Error, "phase1/mod.rc", line 24: 
  Incompatible type bool to binary operator %, equivalent to int expected.
Error, "phase1/mod.rc", line 25: 
  Incompatible type bool to binary operator %, equivalent to int expected.
Error, "phase1/mod.rc", line 26: 
  Incompatible type bool to binary operator %, equivalent to int expected.
Error, "phase1/mod.rc", line 28: 
  Incompatible type bool to binary operator %, equivalent to int expected.
Error, "phase1/mod.rc", line 29: 
  Incompatible type float to binary operator %, equivalent to int expected.
Error, "phase1/mod.rc", line 34: 
  Incompatible type bool to binary operator %, equivalent to int expected.
Error, "phase1/mod.rc", line 35: 
  Incompatible type bool to binary operator %, equivalent to int expected.
Error, "phase1/mod.rc", line 36: 
  Incompatible type bool to binary operator %, equivalent to int expected.
Error, "phase1/mod.rc", line 38: 
  Incompatible type bool to binary operator %, equivalent to int expected.
Error, "phase1/mod.rc", line 39: 
  Incompatible type float to binary operator %, equivalent to int expected.
Compile: failure.
