Error, "hmsmtests/bit_op.rc", line 5: 
  Incompatible type float to binary operator &, equivalent to int expected.
Error, "hmsmtests/bit_op.rc", line 6: 
  Incompatible type float to binary operator &, equivalent to int expected.
Error, "hmsmtests/bit_op.rc", line 7: 
  Incompatible type bool to binary operator &, equivalent to int expected.
Error, "hmsmtests/bit_op.rc", line 9: 
  Incompatible type float to binary operator ^, equivalent to int expected.
Error, "hmsmtests/bit_op.rc", line 10: 
  Incompatible type float to binary operator ^, equivalent to int expected.
Error, "hmsmtests/bit_op.rc", line 11: 
  Incompatible type bool to binary operator ^, equivalent to int expected.
Error, "hmsmtests/bit_op.rc", line 13: 
  Incompatible type float to binary operator |, equivalent to int expected.
Error, "hmsmtests/bit_op.rc", line 14: 
  Incompatible type float to binary operator |, equivalent to int expected.
Error, "hmsmtests/bit_op.rc", line 15: 
  Incompatible type bool to binary operator |, equivalent to int expected.
Compile: failure.
