Error, "hmsmtests/sizeof.rc", line 31: 
  Invalid operand to sizeof. Not a type or not addressable.
Error, "hmsmtests/sizeof.rc", line 32: 
  Invalid operand to sizeof. Not a type or not addressable.
Error, "hmsmtests/sizeof.rc", line 33: 
  Invalid operand to sizeof. Not a type or not addressable.
Compile: failure.
