Error, "hmsmtests/struct_ident.rc", line 3: 
  Field x declared second time in struct.
Error, "hmsmtests/struct_ident.rc", line 4: 
  Field x declared second time in struct.
Error, "hmsmtests/struct_ident.rc", line 5: 
  Field y declared second time in struct.
Error, "hmsmtests/struct_ident.rc", line 11: 
  Duplicate declaration of overloaded function foo.
Error, "hmsmtests/struct_ident.rc", line 17: 
  redeclared identifier 'x'.
Compile: failure.
