Error, "publictests/p02c.rc", line 7: 
  Value of type int not assignable to variable of type bool.
Error, "publictests/p02c.rc", line 8: 
  Operand to ++ is not a modifiable L-value.
Error, "publictests/p02c.rc", line 9: 
  Left-hand operand is not assignable (not a modifiable L-value).
Error, "publictests/p02c.rc", line 10: 
  Operand to ++ is not a modifiable L-value.
Error, "publictests/p02c.rc", line 11: 
  Operand to ++ is not a modifiable L-value.
Compile: failure.
