Error, "publictests/p06b.rc", line 2: 
  Type of return expression (int), not assignment compatible with function's return type (void).
Error, "publictests/p06b.rc", line 7: 
  Type of return expression (int), not assignment compatible with function's return type (void).
Compile: failure.
