Error, "publictests/p17b.rc", line 8: 
  Incompatible types to operator !=:
    int,
    int*;
  both must be of equivalent pointer type.
Error, "publictests/p17b.rc", line 9: 
  Incompatible types to operator ==:
    float*,
    int;
  both must be of equivalent pointer type.
Compile: failure.
