Error, "publictests/p21a.rc", line 6: 
  Left-hand operand is not assignable (not a modifiable L-value).
Error, "publictests/p21a.rc", line 9: 
  Left-hand operand is not assignable (not a modifiable L-value).
Error, "publictests/p21a.rc", line 10: 
  Return required in function, none found.
Compile: failure.
